{
  "kind": "singleType",
  "collectionName": "social_icons",
  "info": {
    "singularName": "social-icon",
    "pluralName": "social-icons",
    "displayName": "Social-icons"
  },
  "options": {
    "draftAndPublish": true
  },
  "pluginOptions": {
    "i18n": {
      "localized": true
    }
  },
  "attributes": {
    "title": {
      "pluginOptions": {
        "i18n": {
          "localized": true
        }
      },
      "type": "string",
      "required": true
    },
    "items": {
      "displayName": "Social-item",
      "type": "component",
      "repeatable": true,
      "pluginOptions": {
        "i18n": {
          "localized": true
        }
      },
      "component": "settings.social-item"
    }
  }
}
