{
  "collectionName": "components_home_link_cards_horizontals",
  "info": {
    "displayName": "image-link-cards",
    "description": ""
  },
  "options": {},
  "attributes": {
    "item_1": {
      "type": "component",
      "repeatable": false,
      "component": "home.single-link-card-https"
    },
    "item_2": {
      "type": "component",
      "repeatable": false,
      "component": "home.single-link-card-https"
    },
    "item_3": {
      "type": "component",
      "repeatable": false,
      "component": "home.single-link-card-https"
    }
  }
}
