{
  "collectionName": "components_home_single_link_cards",
  "info": {
    "displayName": "icon-single-link-card",
    "description": ""
  },
  "options": {},
  "attributes": {
    "title": {
      "type": "string",
      "required": true
    },
    "description": {
      "type": "text",
      "required": true
    },
    "link_text": {
      "type": "string",
      "required": true
    },
    "image": {
      "type": "media",
      "multiple": false,
      "required": true,
      "allowedTypes": [
        "images"
      ]
    },
    "link": {
      "type": "string",
      "required": true
    }
  }
}
