{
  "collectionName": "components_navbar_course_items",
  "info": {
    "displayName": "Course-items",
    "description": ""
  },
  "options": {},
  "attributes": {
    "short_title": {
      "type": "string"
    },
    "items": {
      "type": "component",
      "repeatable": true,
      "component": "navbar.course-single"
    },
    "link": {
      "type": "relation",
      "relation": "oneToOne",
      "target": "api::singe-page-custom.singe-page-custom"
    }
  }
}
