{
  "collectionName": "components_navbar_donation_items",
  "info": {
    "displayName": "Donation-items",
    "description": ""
  },
  "options": {},
  "attributes": {
    "short_title": {
      "type": "string"
    },
    "items": {
      "type": "component",
      "repeatable": true,
      "component": "navbar.donation-single"
    },
    "link": {
      "type": "relation",
      "relation": "oneToOne",
      "target": "api::single-page.single-page"
    }
  }
}
