{
  "collectionName": "components_variant_variants",
  "info": {
    "displayName": "variant",
    "description": ""
  },
  "options": {},
  "attributes": {
    "variant_option": {
      "type": "string",
      "required": true
    },
    "variant_price_per_day": {
      "type": "decimal",
      "required": true
    }
  }
}
