{
  "collectionName": "components_texts_table_rows",
  "info": {
    "displayName": "Table_Row",
    "icon": "border-all",
    "description": ""
  },
  "options": {},
  "attributes": {
    "time": {
      "type": "string",
      "required": true
    },
    "activity": {
      "type": "string",
      "required": true
    }
  }
}
