{
  "kind": "collectionType",
  "collectionName": "single_pages",
  "info": {
    "singularName": "single-page",
    "pluralName": "single-pages",
    "displayName": "Single-page",
    "description": ""
  },
  "options": {
    "draftAndPublish": true
  },
  "pluginOptions": {
    "i18n": {
      "localized": true
    }
  },
  "attributes": {
    "title": {
      "pluginOptions": {
        "i18n": {
          "localized": true
        }
      },
      "type": "string",
      "required": true
    },
    "subtitle": {
      "pluginOptions": {
        "i18n": {
          "localized": true
        }
      },
      "type": "text",
      "required": false
    },
    "contents": {
      "pluginOptions": {
        "i18n": {
          "localized": true
        }
      },
      "type": "dynamiczone",
      "components": [
        "cards.card-simple",
        "donations.donations",
        "images.asymmetric-carousel",
        "images.blog-carousel-images",
        "images.blog-image",
        "settings.contact-us",
        "texts.blog-rich-text",
        "texts.zitat",
        "settings.team",
        "settings.retreat-form",
        "table.cost-breakdown",
        "teacher.teacher-list"
      ],
      "required": true
    },
    "single_page_settings": {
      "type": "component",
      "repeatable": false,
      "pluginOptions": {
        "i18n": {
          "localized": true
        }
      },
      "component": "settings.overview-settings"
    }
  }
}
