{
  "collectionName": "components_settings_video_settings",
  "info": {
    "displayName": "Video-Settings",
    "description": ""
  },
  "options": {},
  "attributes": {
    "course_not_purchased": {
      "type": "string",
      "required": true
    },
    "video_starting_text": {
      "type": "string",
      "required": true
    },
    "wait_to_watch_text": {
      "type": "string",
      "required": true
    },
    "video_started_text": {
      "type": "string",
      "required": true
    },
    "recording_availability_text": {
      "type": "string",
      "required": true
    },
    "recording_wait_text": {
      "type": "string",
      "required": true
    }
  }
}
